<?xml version="1.0" encoding="UTF-8" standalone="no"?>
<svg
   version="1.1"
   width="64"
   height="36"
   viewBox="0 0 533.33333 300"
   id="svg6"
   sodipodi:docname="info.svg"
   inkscape:version="1.1 (1:1.1+202105261517+ce6663b3b7)"
   xmlns:inkscape="http://www.inkscape.org/namespaces/inkscape"
   xmlns:sodipodi="http://sodipodi.sourceforge.net/DTD/sodipodi-0.dtd"
   xmlns="http://www.w3.org/2000/svg"
   xmlns:svg="http://www.w3.org/2000/svg">
  <defs
     id="defs10" />
  <sodipodi:namedview
     id="namedview8"
     pagecolor="#505050"
     bordercolor="#eeeeee"
     borderopacity="1"
     inkscape:pageshadow="0"
     inkscape:pageopacity="0"
     inkscape:pagecheckerboard="0"
     showgrid="false"
     width="36px"
     inkscape:zoom="11.370496"
     inkscape:cx="8.8826376"
     inkscape:cy="22.206594"
     inkscape:current-layer="svg6" />
  <ellipse
     style="color:#000000;overflow:visible;fill:#ffffff;fill-opacity:0.989745;stroke-width:21.4908;stroke-linecap:round;stroke-opacity:0.989745;paint-order:markers fill stroke;stop-color:#000000"
     id="path854"
     cx="284.0592"
     cy="157.81299"
     rx="85.232765"
     ry="83.214958" />
  <g
     transform="matrix(0.11846601,0,0,-0.11846601,191.80514,231.0839)"
     id="g4">
    <path
       fill="#258fd6"
       d="m 1024,160 v 160 q 0,14 -9,23 -9,9 -23,9 h -96 v 512 q 0,14 -9,23 -9,9 -23,9 H 544 q -14,0 -23,-9 -9,-9 -9,-23 V 704 q 0,-14 9,-23 9,-9 23,-9 h 96 V 352 h -96 q -14,0 -23,-9 -9,-9 -9,-23 V 160 q 0,-14 9,-23 9,-9 23,-9 h 448 q 14,0 23,9 9,9 9,23 z m -128,896 v 160 q 0,14 -9,23 -9,9 -23,9 H 672 q -14,0 -23,-9 -9,-9 -9,-23 v -160 q 0,-14 9,-23 9,-9 23,-9 h 192 q 14,0 23,9 9,9 9,23 z M 1536,640 Q 1536,431 1433,254.5 1330,78 1153.5,-25 977,-128 768,-128 559,-128 382.5,-25 206,78 103,254.5 0,431 0,640 0,849 103,1025.5 206,1202 382.5,1305 559,1408 768,1408 977,1408 1153.5,1305 1330,1202 1433,1025.5 1536,849 1536,640 Z"
       id="path2" />
  </g>
</svg>
