<?xml version="1.0" encoding="UTF-8" standalone="no"?>
<svg
   xmlns:dc="http://purl.org/dc/elements/1.1/"
   xmlns:cc="http://creativecommons.org/ns#"
   xmlns:rdf="http://www.w3.org/1999/02/22-rdf-syntax-ns#"
   xmlns:svg="http://www.w3.org/2000/svg"
   xmlns="http://www.w3.org/2000/svg"
   xmlns:sodipodi="http://sodipodi.sourceforge.net/DTD/sodipodi-0.dtd"
   xmlns:inkscape="http://www.inkscape.org/namespaces/inkscape"
   width="560"
   height="120"
   version="1.1"
   id="svg6"
   sodipodi:docname="ja.svg"
   inkscape:version="0.92.4 (5da689c313, 2019-01-14)">
  <metadata
     id="metadata12">
    <rdf:RDF>
      <cc:Work
         rdf:about="">
        <dc:format>image/svg+xml</dc:format>
        <dc:type
           rdf:resource="http://purl.org/dc/dcmitype/StillImage" />
      </cc:Work>
    </rdf:RDF>
  </metadata>
  <defs
     id="defs10" />
  <sodipodi:namedview
     pagecolor="#ffffff"
     bordercolor="#666666"
     borderopacity="1"
     objecttolerance="10"
     gridtolerance="10"
     guidetolerance="10"
     inkscape:pageopacity="0"
     inkscape:pageshadow="2"
     inkscape:window-width="1841"
     inkscape:window-height="1051"
     id="namedview8"
     showgrid="false"
     inkscape:zoom="1.1071429"
     inkscape:cx="280"
     inkscape:cy="60"
     inkscape:window-x="1911"
     inkscape:window-y="-9"
     inkscape:window-maximized="1"
     inkscape:current-layer="svg6" />
  <path
     style="color:#000000;display:inline;overflow:visible;visibility:visible;opacity:1;vector-effect:none;fill:#000000;fill-opacity:1;fill-rule:nonzero;stroke:none;stroke-width:0.12479413;stroke-linecap:butt;stroke-linejoin:miter;stroke-miterlimit:4;stroke-dasharray:none;stroke-dashoffset:0;stroke-opacity:1;marker:none;paint-order:normal;enable-background:accumulate"
     d="m 360.17628,31.968336 c -0.0599,-0.009 -0.20776,0.06032 -0.46238,0.225695 -8.27103,5.688433 -15.43572,9.747824 -22.70687,13.066382 -0.25509,-1.064934 -0.50639,-2.129554 -0.75873,-3.205716 -0.43446,-1.85269 1.28632,-5.569881 -1.1758,-5.687001 -0.51146,-0.677948 -1.52741,-2.023305 -2.13623,-2.506665 -1.0998,-0.873162 -1.83546,-0.560664 -2.71249,0.04322 -1.0299,-1.026328 -3.09362,-0.656751 -4.658,-0.194138 -0.73835,0.218352 -1.21656,1.618745 -1.46598,2.249412 -0.47996,1.213647 1.6214,4.82165 2.70149,6.320189 0.47579,2.319947 0.97212,4.515013 1.49275,6.607625 -1.8823,0.715684 -3.79671,1.40994 -5.7707,2.089579 -1.60925,0.554068 -4.63065,0.338985 -6.53902,0.43287 -1.31215,0.06456 -2.44126,1.532137 -1.87967,2.23913 -0.44717,-0.07092 -1.23014,0.617377 -0.93707,1.391224 0.12212,0.322476 -0.16518,2.657981 0.686,2.792736 -0.0499,0.791714 1.30909,1.284598 2.03264,1.278716 -0.48829,0.744128 -0.0978,1.269943 0.32243,1.739717 1.06625,1.191835 2.22554,1.524867 2.93335,0.797139 0.38541,0.61002 1.01047,0.338583 1.65261,0.181106 1.42653,-0.349845 4.56487,-1.889365 5.37144,-2.178074 1.69451,-0.606522 3.25184,-1.189601 4.71901,-1.763039 1.44824,4.368668 3.07646,8.340577 4.93516,12.212315 -2.4314,0.94572 -4.93142,1.825964 -7.53236,2.661021 -1.58234,0.508034 -3.27307,0.498484 -5.43457,0.459627 -0.8417,-0.01514 -1.64406,0.464027 -1.62719,0.873971 -0.81445,-0.324617 -1.0953,1.01014 -1.55448,2.068315 -0.14692,0.338647 0.60975,0.982168 0.95147,1.233441 -0.81427,0.792666 -0.12336,1.51546 0.57693,2.31802 0.23014,0.263739 0.91871,0.764796 1.26913,0.65102 0.374,0.598339 0.46401,1.47087 1.21974,1.75275 0.32556,0.12145 1.19365,-0.09929 1.5689,-0.114562 -0.51628,3.551076 8.22319,-1.219082 10.61184,-2.221293 1.46016,-0.612636 2.7938,-1.160532 4.14618,-1.719822 1.31236,2.302793 2.71623,4.640376 4.23341,7.078913 1.36846,2.199557 3.99018,6.16049 4.5414,5.982671 0.59751,-0.192775 -1.28364,-3.717384 -0.83423,-3.877999 0.66077,0.115083 1.80325,2.327484 3.06373,4.111929 0.68772,0.973661 1.74981,2.284167 2.00313,2.100557 0.3119,-0.226185 0.068,-1.696676 -0.88974,-3.161811 -0.94136,-1.439856 -0.13903,-1.446533 -0.97626,-2.556065 1.03867,0.739618 2.9514,5.496019 3.71962,4.930339 0.35908,-0.264502 0.25886,-0.659413 0.43146,-0.745003 0.57589,-0.285524 0.92607,0.959126 0.70457,-1.415922 0.54394,1.039613 1.87159,2.444366 2.56907,3.362807 0.65893,0.86766 1.28285,1.02793 0.95971,0.505591 -4.84979,-7.838603 -8.5586,-14.341781 -11.457,-19.917546 3.75405,-1.871191 7.89738,-4.27881 13.28796,-8.033156 0.80585,-0.561262 3.16202,-2.188664 2.94436,-2.78313 -0.27408,-0.748351 -1.22553,0.627239 -3.53436,1.494123 1.68829,-1.527374 0.34502,-2.078647 1.31378,-2.823608 0.63688,-0.489794 0.72012,-1.358573 0.47742,-1.879659 0.51372,-0.648905 2.51849,-2.321354 2.62399,-3.309303 0.0358,-0.338861 -0.20093,-0.937755 -1.04342,-0.533714 0.23048,-0.838982 1.25475,-2.231563 -0.70111,-1.362411 0.72897,-0.35066 1.62073,-1.430417 2.25422,-2.044303 1.70346,-1.650829 2.02376,-2.993601 1.09283,-2.180817 -7.8099,6.818761 -15.01708,11.657287 -22.63554,15.429683 -2.13121,-4.704721 -3.6102,-8.677527 -4.75196,-12.304919 4.70821,-2.373712 8.74454,-4.999154 13.9253,-8.668393 0.98202,-0.695535 3.05955,-1.839552 1.47351,-2.35026 -0.37152,-0.119628 2.70652,-1.920926 2.20892,-3.052735 0.632,-0.598812 1.39457,-0.885002 1.10583,-1.284891 -0.47662,-0.660288 -1.6866,0.145373 -2.09912,-0.130341 -0.30083,-0.201046 -0.17209,-0.488762 0.2785,-0.80606 0.35682,-0.251274 -0.95619,-0.290269 -1.58058,-0.284007 1.96714,-1.625333 5.87069,-5.522924 5.45107,-5.585466 z M 53.582992,33.180511 c -1.202389,-0.01538 -3.071041,0.587154 -3.988446,1.581932 -0.673075,0.729842 -0.454133,1.945203 -0.749122,2.367406 -1.144442,1.638038 -1.933464,3.349838 -1.970901,5.184847 -0.08118,3.978704 2.828803,9.972983 8.619686,9.913494 5.115437,-0.05255 9.45885,-3.871311 9.752972,-7.758747 0.385486,-5.095253 -3.417772,-9.17524 -4.605166,-8.852928 -0.87812,-0.812943 -2.754051,-1.318665 -2.818124,-0.688741 -1.14678,-0.365799 -2.318813,-0.256832 -3.237957,0.01648 0.200672,-0.735967 0.239477,-1.444213 -0.296354,-1.65122 -0.186639,-0.07211 -0.429107,-0.108953 -0.706588,-0.112505 z m 474.812558,0.410233 c -0.27348,0.0049 -0.54769,0.08608 -0.81423,0.274403 -1.34628,-0.58013 -2.90817,0.396687 -3.92471,1.563411 -1.27382,1.462041 -0.95507,3.611587 -1.13186,7.112519 -0.85024,16.840008 -1.10278,12.985834 0.98439,36.673286 0.22076,0.400989 0.61356,-1.945615 0.96387,-2.086151 -0.20151,3.810877 1.9888,13.053818 2.95874,13.785323 0.37301,0.281294 0.71868,-2.159672 1.26706,-2.593792 0.15731,0.93512 0.23372,3.18278 1.51881,2.102611 0.33831,4.243573 2.37418,3.855438 2.23294,1.81175 -0.92475,-13.381412 -1.65947,-20.24377 -1.17242,-29.476385 3.71551,3.850444 8.47496,7.320322 10.57961,7.001403 0.67275,0.532281 1.95288,1.333363 2.49506,1.252648 0.47912,-0.07132 0.0514,-0.500417 -1.71778,-2.573215 1.53977,0.699658 5.8725,1.598714 5.90589,-0.491866 1.27089,0.04949 1.68525,0.521291 2.13616,0.02813 0.50639,-0.553815 -0.66643,-1.376103 -1.73763,-2.57528 2.09393,1.794802 7.06334,1.710628 2.09027,-0.264799 -7.59139,-3.015439 -12.21447,-5.084108 -18.95575,-11.546881 0.3417,-2.97659 0.77831,-6.261685 1.34665,-10.076764 0.41409,-2.779814 2.25678,-2.489085 2.46896,-3.804597 0.0662,-0.41029 -0.2138,-1.983795 -0.93302,-2.661711 -1.23556,-1.164657 -1.79675,-2.761526 -4.34036,-2.29263 -0.58507,-0.506493 -1.40009,-1.176067 -2.22065,-1.161411 z M 158.7946,34.020183 c -0.3558,0.01265 -0.6855,0.152187 -0.96246,0.466487 -1.59656,0 -2.66407,0.28823 -3.60634,1.269791 -2.22499,-0.09945 -1.86217,4.208976 -1.76304,6.252961 0.77845,16.052805 14.29138,40.522203 18.6546,44.315409 0.55648,0.483779 0.64492,0.306921 1.48726,0.21678 0.40857,-0.04373 0.90616,0.443797 1.14906,0.445904 0.18196,0.001 0.13242,-0.430166 0.28059,-0.689437 1.88301,2.390335 3.86693,4.285177 4.63671,4.25736 0.72927,-0.02636 -1.07888,-1.53745 -0.048,-2.17533 0.94505,0.342242 0.69863,-0.331051 0.52138,-0.925425 1.36326,2.141889 3.40074,3.356483 4.57156,3.572729 0.66818,0.123438 0.60501,-0.463905 0.24284,-0.904161 -1.16307,-1.413893 0.6758,-0.05506 0.65514,-0.267541 2.01451,1.102644 6.04476,2.246059 4.1325,0.79989 -14.53193,-10.989948 -22.69696,-30.119816 -24.46923,-44.070509 -0.20852,-1.641395 0.69134,-2.760639 1.12506,-5.066167 0.0973,-0.517275 -0.30457,-1.524552 -1.00433,-2.145829 -0.80219,-0.712212 -0.72952,-2.271355 -1.7651,-1.685522 0.43619,-0.819843 -0.0568,-0.908256 -0.65582,-1.625151 -0.81336,-0.973324 -2.11497,-2.080156 -3.18239,-2.042239 z m -21.82671,1.334285 c -0.0428,0.001 -0.0838,0.0052 -0.12348,0.01304 -1.69868,0.334121 -3.1545,2.8803 -3.12202,4.577721 0.0384,2.002543 2.38687,3.807183 2.32832,6.189848 -0.37725,15.350712 -10.37117,29.35674 -20.46154,39.033837 -1.52097,1.45864 -5.33011,4.369076 -5.15536,5.538825 0.11945,0.799513 2.16408,-0.363285 4.37604,-1.756179 -0.39952,0.319832 -1.17788,2.347054 -0.77175,2.766671 0.51999,0.537212 3.35738,-1.5608 4.64564,-2.759808 -0.0492,0.729606 -0.0361,1.340632 1.38711,1.155237 1.19704,-0.155935 4.80521,-4.11027 7.11115,-6.999338 -1.14184,2.619522 -1.70269,5.238732 2.35301,0.454136 7.20429,-8.499066 15.30132,-23.286816 16.95331,-33.827042 0.3994,-2.548389 0.87899,-4.392455 0.4212,-7.149572 -0.39653,-2.388139 -1.7472,-3.26576 -3.21738,-3.648189 -0.11909,-0.711249 -0.0928,-1.347219 -0.69767,-1.830269 -1.06752,-0.852643 -3.07551,-1.229957 -3.99187,-0.707959 -0.43331,-0.364775 -1.39358,-1.067327 -2.03471,-1.050957 z m 40.92861,0.08919 c -1.20242,-0.01538 -3.07105,0.587148 -3.98847,1.581925 -0.67307,0.729851 -0.45414,1.945211 -0.7491,2.367414 -1.14445,1.638038 -1.93347,3.349838 -1.97092,5.184845 -0.0811,3.978706 2.82812,9.972984 8.61899,9.913497 5.11545,-0.05255 9.45955,-3.871311 9.75367,-7.758749 0.38548,-5.095252 -3.41776,-9.175247 -4.60516,-8.852928 -0.87812,-0.812949 -2.75474,-1.317989 -2.81881,-0.688064 -1.14699,-0.365866 -2.31873,-0.257625 -3.23795,0.01576 0.20066,-0.735966 0.23947,-1.444209 -0.29636,-1.65122 -0.18664,-0.07211 -0.42843,-0.108945 -0.70589,-0.112497 z m 246.81317,0.02403 c -0.5229,-0.02164 -1.02219,0.164305 -0.90758,0.811538 -0.91824,-0.510595 -2.24199,-0.205168 -2.57875,0.196885 -0.81385,0.971789 -2.83735,2.226038 -2.29946,4.046072 0.37346,1.263687 1.21621,3.027299 2.35023,4.467281 -1.42476,14.837458 -1.47885,19.318614 -0.29908,34.181707 0.0757,0.953656 0.50261,3.966412 0.60714,4.250502 0.22982,0.624901 0.75078,-1.840858 0.51517,-4.338995 0.30258,-0.128626 1.71947,8.21607 2.57733,8.168291 1.83128,-0.102001 1.34575,4.118718 1.63615,2.753636 1.22325,2.227938 1.9577,-1.439652 2.22469,-0.510388 0.80702,2.808131 1.53293,3.298598 1.3501,1.898868 -0.24095,-1.844248 -0.44194,-3.604474 -0.62224,-5.326851 14.12285,-0.773112 26.11616,-1.334007 36.14714,-2.534111 0.19013,-0.02276 1.8466,-0.267242 2.26727,-0.599574 0.56248,-0.444409 -0.19156,-1.036712 -1.04277,-1.421405 1.29641,-0.552063 2.28294,-0.881128 2.51627,-1.520196 0.35603,-0.975248 -1.33727,-1.502477 -0.47057,-1.931796 1.74902,-0.866423 4.60369,-1.930706 1.56684,-2.136912 2.67385,-0.756714 5.04081,-1.811493 4.15583,-1.710218 -2.58619,0.295944 -5.44222,0.666263 -8.45439,1.04479 0.33644,-12.586961 2.37848,-21.381455 3.72436,-30.720111 0.0539,-0.374471 0.74206,-1.199197 0.7196,-1.850162 -0.041,-1.188369 -0.88474,-2.335323 -1.17581,-2.907301 -0.31462,-0.618154 -0.38654,-0.82017 -0.84586,-1.05508 -0.058,-0.323266 -0.47495,-0.807636 -0.66065,-1.103098 -0.83207,-1.324041 -2.75839,-1.8327 -4.08103,-1.730799 -11.40088,0.87836 -19.8125,2.598114 -34.0767,2.221293 -0.39229,-0.576134 -2.28809,-1.525414 -4.00425,-2.435327 -0.2032,-0.107737 -0.52525,-0.195563 -0.83898,-0.208539 z m -368.705756,0.08505 c 0.277688,0.002 0.557902,0.02164 0.834185,0.06449 -0.687212,0.155463 -0.933789,0.49454 -0.680522,0.581046 0.593207,0.202617 1.166131,0.474731 1.509909,0.820466 -0.362587,0.02615 -1.32398,0.03316 -0.937088,0.210604 0.405924,0.186162 1.817934,0.456589 2.79891,1.33497 0.593746,0.531659 1.915863,1.993047 1.9119,3.08429 -0.567645,-1.541165 -2.151102,-2.239655 -1.599768,-1.155236 0.51218,1.007484 0.637447,2.0233 0.596142,2.885348 -0.107882,2.25081 -2.15437,3.986243 -4.428865,3.950033 -2.428432,-0.03865 -3.866999,-2.167701 -2.960125,-5.276771 1.102104,-0.826578 2.492317,-2.137798 2.573903,-3.603599 0.01764,-0.318662 -0.410166,-0.58033 -0.469917,-1.136712 -0.05975,-0.556659 -0.0065,-1.244949 -0.161207,-1.695813 0.325247,-0.03702 0.662763,-0.06583 1.012543,-0.06311 z m 124.312806,2.263827 c 0.27769,0.002 0.55858,0.02094 0.83487,0.0638 -0.6872,0.155464 -0.93379,0.494539 -0.68051,0.581046 0.59319,0.202617 1.16543,0.474731 1.50921,0.820466 -0.36259,0.02615 -1.3233,0.03316 -0.93641,0.210604 0.40592,0.186166 1.81726,0.456593 2.79823,1.334971 0.59376,0.531657 1.91655,1.993045 1.9126,3.084291 -0.56766,-1.541172 -2.15181,-2.239653 -1.60046,-1.155237 0.51218,1.007481 0.63813,2.023294 0.59683,2.885346 -0.10789,2.250807 -2.15438,3.986243 -4.42887,3.950035 -2.42843,-0.03866 -3.86699,-2.167698 -2.96012,-5.276772 1.1021,-0.826573 2.49231,-2.137798 2.5739,-3.6036 0.0176,-0.318662 -0.41086,-0.580333 -0.47061,-1.136711 -0.0598,-0.556661 -0.006,-1.24495 -0.16052,-1.695812 0.3252,-0.03702 0.66215,-0.06515 1.01186,-0.06243 z M 27.391908,38.379084 c -7.195744,-0.109022 -11.203387,7.255994 -15.5271,9.593813 -1.513949,0.818591 -5.0918458,0.565101 -4.496092,2.030584 -1.9986097,1.306494 -1.1472607,4.288463 -0.2949793,5.583417 -1.1104021,1.577313 0.5399723,4.378457 2.1609241,4.404167 0.8141982,0.01293 0.5127726,0.464123 1.0152922,0.779305 0.498666,0.312766 1.802596,0.490431 2.27343,0.290866 1.498834,-0.635301 2.267795,-1.489396 3.457475,-2.664451 3.91011,-3.862022 6.566288,-10.180861 11.990047,-10.024631 8.234567,0.237189 11.503844,26.444711 20.169304,34.392996 4.597083,4.216619 7.276877,7.754704 7.435638,3.880061 0.530527,0.542845 8.57559,5.598864 7.617426,3.135056 -0.241389,-0.620679 -3.356857,-2.396211 -4.380159,-3.792253 3.233791,1.135935 7.694522,4.271322 6.947196,1.627212 6.862232,3.05772 6.517119,1.491349 7.163984,1.514702 1.374831,0.04961 1.745009,-0.669477 0.07477,-1.063997 C 69.077269,87.139558 65.209554,84.32646 60.749031,81.795135 42.094395,71.208665 48.4544,44.351644 30.681318,38.919642 c -1.168295,-0.357068 -2.261442,-0.525 -3.28941,-0.540575 z M 461.2437,45.403116 c -1.11944,3.591126 -2.28678,15.36585 -2.47996,27.738034 -0.0345,2.19912 1.12953,2.527215 1.34255,0.144748 0.2284,0.257283 0.39079,1.467769 0.58104,2.608889 -9.36965,1.085923 -20.28615,2.002358 -32.12227,1.346631 -0.52603,-10.280511 0.0906,-19.10383 1.37334,-29.748726 9.62205,-0.10145 21.8435,-0.63455 31.3053,-2.089576 z m -78.20622,0.753236 c -0.14353,-0.0035 -0.2983,0.004 -0.4672,0.02469 -0.86008,0.105347 -3.79569,1.332302 -3.56451,2.113591 -1.59177,-0.556421 -2.36279,1.297568 -2.6967,2.074487 -0.44331,1.031538 -1.71583,3.894577 -0.97617,4.755405 0.78631,0.915194 2.11,0.92768 3.25853,1.789106 1.04055,2.617909 1.96478,5.061095 2.85791,7.388989 -2.12387,1.233119 -4.25488,2.351085 -6.41415,3.239336 -1.8604,0.765255 -5.30702,1.87424 -5.27611,2.652105 0.015,0.371467 -0.58682,1.262537 0.13648,1.94689 0.41181,1.027582 2.32148,2.996432 3.40193,2.392794 -0.43511,0.851423 0.2526,1.155968 0.70795,1.238243 -0.80272,1.454657 2.14841,1.287994 3.88421,0.640729 0.84984,-0.31691 1.91897,-1.777136 2.64183,-2.363981 1.10642,-0.898295 2.36241,-1.83125 3.71128,-2.772157 1.82114,4.24628 3.86626,8.270613 6.79628,12.51209 1.2623,1.827338 1.26608,-1.084813 1.98048,-1.697182 3.3227,2.284522 3.96036,6.648639 3.96036,1.131229 0.95621,2.258875 5.05281,5.156116 3.96032,3.111729 -4.02006,-7.522838 -7.04747,-13.951488 -9.38873,-19.695969 3.75365,-2.184979 7.58566,-4.147601 10.76279,-5.481887 -0.0851,0.935848 -2.06646,3.849068 -1.7987,4.912502 -2.08553,3.575858 -0.7998,3.25859 0.21335,2.227471 1.08983,-1.109193 1.54492,0.343182 2.07999,0.304587 0.0248,2.122291 3.68506,-2.466778 2.94085,-0.897297 -1.17436,2.476869 -1.92723,3.02303 -2.22332,4.015201 -0.20768,0.695963 0.39482,0.153811 1.00703,-0.869856 0.2519,0.429168 1.00606,0.264884 1.21629,-0.0741 2.80376,-4.519239 6.66708,-11.448148 6.264,-16.528672 -0.11404,-1.437044 -3.72371,-4.028961 -4.88987,-3.758635 -6.46956,1.668746 -12.39965,5.414923 -18.21214,9.159572 -0.59393,-1.71827 -1.12673,-3.381422 -1.61008,-5.003054 -0.68633,-2.303057 0.0111,-7.095061 -1.92769,-7.651041 -0.88082,-0.252638 -1.33227,-0.811936 -2.33649,-0.836929 z m -114.44049,1.39671 c -0.32979,-0.0098 -0.61158,0.13655 -0.81636,0.292925 -0.26114,-0.146986 -0.69084,-0.172192 -0.94327,-0.04253 -0.65544,0.336659 -1.2704,0.947124 -1.78635,1.914646 -0.29726,0.02951 -0.91764,0.270606 -1.23141,0.667486 -0.62984,0.796694 -0.91518,2.605105 -0.27028,3.902012 0.20914,0.42056 2.21961,0.931234 2.56568,1.477659 1.97725,1.408984 4.02503,3.400569 5.2946,4.979728 0.71533,0.889734 0.29129,-0.904977 0.081,-1.535968 0.73939,0.639126 1.30365,1.474436 1.7692,2.390047 -7.22266,4.002242 -19.06273,8.020693 -18.5476,17.325816 0.64473,11.646021 12.55348,12.602219 24.25584,12.695944 0.50737,0.0039 2.23392,-0.114899 2.80238,-0.479517 0.31755,-0.203691 -0.25478,-0.511522 -0.3279,-0.850653 1.94124,0.04387 2.18165,-0.597761 1.56889,-1.081835 0.76229,-0.138596 2.6656,-0.163378 3.37788,-0.600942 0.82571,-0.507247 0.49765,-1.248075 1.24716,-1.522938 1.93904,-0.711066 2.05884,-2.316565 1.59704,-2.779701 -0.19516,-0.195698 -0.99853,-0.144176 -1.26431,-0.326541 -0.20569,-0.141113 2.19593,-0.848136 3.60909,-1.551749 2.03854,-1.014963 3.04124,-2.008012 3.20365,-2.640444 0.23446,-0.912646 -1.54778,0.374147 -2.45043,0.777247 -5.7876,2.58454 -13.26036,3.317201 -17.04179,3.306559 -5.19776,-0.01462 -10.12016,-0.866229 -11.60656,-3.449934 -4.39971,-7.647944 16.81655,-10.120475 23.61925,-16.567774 1.66065,-1.573861 4.99675,-4.111561 5.45512,-7.714155 0.0561,-0.440742 0.69376,-1.650752 -0.23738,-2.513533 -0.3632,-0.336562 -0.72553,-0.621389 -1.05781,-0.646217 0.40273,-1.521421 -2.72717,-1.828075 -3.35388,-1.763042 -1.24134,0.128808 -1.52071,1.116814 -1.85017,2.136914 -0.35822,-0.585306 -1.02923,-1.266272 -1.48383,-1.447479 -0.97721,-0.389503 -1.81768,-0.297686 -2.75021,0.533718 -0.43327,0.386276 -0.53921,1.312277 -0.72853,1.73697 -0.77785,1.744642 -2.53973,3.522464 -4.19907,4.871341 -1.6822,-5.353551 -4.27509,-8.919488 -5.95864,-10.358716 -0.71926,-0.614879 -1.70075,-1.110383 -2.54097,-1.135342 z M 94.485512,48.313159 c -0.935461,-0.0024 -1.79872,0.339363 -1.959238,1.203255 -1.52674,-0.588036 -2.739777,0.650223 -3.080861,0.862997 -1.147028,0.715545 -0.246017,1.485988 0.441103,2.242561 2.426578,3.149417 3.91694,6.085549 4.686806,9.487486 0.07579,0.334844 0.584744,2.663678 0.951491,2.832523 0.408594,0.188122 0.668297,-1.86411 0.52685,-3.185817 0.201334,0.432792 1.277165,2.288376 1.466687,0.338886 0.57242,1.138904 0.89492,0.397284 0.897296,-0.200313 0.003,-0.658472 -0.265806,-1.682542 -0.824586,-3.205028 0.316188,0.61902 1.219494,0.438511 0.876046,-1.503043 0.596087,0.417786 1.169564,1.288234 1.055068,0.629754 -0.620599,-3.568928 -0.481822,-6.174214 -2.64456,-8.641636 -0.449304,-0.512606 -1.456647,-0.859223 -2.392102,-0.861625 z m 399.224838,0 c -0.93544,-0.0024 -1.7987,0.339363 -1.95927,1.203255 -1.52668,-0.588036 -2.74043,0.650223 -3.08148,0.862997 -1.14704,0.715545 -0.24538,1.485988 0.44175,2.242561 2.42657,3.149417 3.91695,6.085549 4.68686,9.487486 0.0758,0.334844 0.58467,2.663678 0.95145,2.832523 0.40855,0.188122 0.66825,-1.86411 0.52681,-3.185817 0.20138,0.432792 1.27721,2.288376 1.46675,0.338886 0.57243,1.138904 0.89494,0.397284 0.89729,-0.200313 0.006,-0.658472 -0.26582,-1.682542 -0.82459,-3.205028 0.3162,0.61902 1.21948,0.438511 0.87601,-1.503043 0.59606,0.417786 1.1689,1.288234 1.05441,0.629754 -0.62061,-3.568928 -0.48113,-6.174214 -2.64391,-8.641636 -0.4493,-0.512606 -1.45659,-0.859223 -2.39208,-0.861625 z m -387.43993,0.613292 c -0.53432,0.01457 -1.1405,0.263844 -1.97225,0.829379 -0.29546,-0.268111 -2.56972,0.350433 -2.90251,1.463942 -1.00381,0.512225 -1.18897,1.4504 -0.48843,2.359182 1.59957,2.074978 2.66493,1.893094 2.6768,3.260592 0.1306,15.066531 -15.455333,24.072453 -22.202639,27.808011 -0.193003,0.106867 -0.652519,0.59844 -0.794397,0.903471 -0.164261,0.353216 -0.461573,0.657348 -0.07889,0.836931 -0.683209,0.453136 1.862179,-0.705275 3.401226,-1.267744 -0.550742,0.605966 -0.416479,0.852463 -0.137197,0.837617 1.499351,-0.07969 5.817873,-2.216159 9.691913,-4.893291 -0.205817,0.163174 -0.327016,0.473029 -0.996081,1.008429 -0.671709,0.537503 -0.576056,0.728699 -0.452077,0.876032 0.24612,0.292516 2.483145,-0.600849 2.853792,-0.765586 -0.556022,0.939198 0.95785,0.270252 1.295178,0.04322 8.794392,-5.918825 18.982442,-15.476635 17.797772,-26.820155 -0.11743,-1.124303 -0.16167,-2.189541 -1.1422,-2.500499 0.116,-0.919679 -0.68046,-1.380767 -1.60251,-2.007256 -0.40815,-0.277315 -1.84492,-0.960704 -2.16435,-0.457565 -1.20142,-0.909885 -1.89257,-1.539025 -2.78315,-1.514706 z m 399.2249,0 c -0.53437,0.01457 -1.14054,0.263844 -1.97228,0.829379 -0.2955,-0.268111 -2.56978,0.350433 -2.9025,1.463942 -1.00384,0.512225 -1.18902,1.4504 -0.48843,2.359182 1.59952,2.074978 2.66494,1.893094 2.67679,3.260592 0.13064,15.066531 -15.45537,24.072453 -22.20265,27.808011 -0.19298,0.106867 -0.65322,0.59844 -0.79511,0.903471 -0.1642,0.353216 -0.46088,0.657348 -0.0782,0.836931 -0.68317,0.453136 1.8622,-0.705275 3.40126,-1.267744 -0.55077,0.605966 -0.41715,0.852463 -0.13786,0.837617 1.49935,-0.07969 5.81855,-2.216159 9.6926,-4.893291 -0.20579,0.163174 -0.32706,0.473029 -0.99608,1.008429 -0.67177,0.537503 -0.57609,0.728699 -0.4521,0.876032 0.2461,0.292516 2.48314,-0.600849 2.85375,-0.765586 -0.55597,0.939198 0.95788,0.270252 1.29523,0.04322 8.79435,-5.918829 18.98244,-15.476639 17.79781,-26.820159 -0.1175,-1.124303 -0.16175,-2.189541 -1.14228,-2.500499 0.11597,-0.919679 -0.68043,-1.380768 -1.60253,-2.007256 -0.40809,-0.277315 -1.84555,-0.960704 -2.165,-0.457565 -1.20144,-0.909885 -1.89188,-1.539025 -2.7824,-1.514705 z M 85.129742,49.991135 c -0.311242,0.01447 -0.649012,0.09246 -1.015981,0.241474 -0.695567,0.282457 -2.031425,0.314961 -1.603888,1.322621 -0.544318,-0.04888 -3.148304,0.17728 -3.587129,0.428753 -1.222997,0.700846 -1.095178,2.14439 0.118674,2.580762 2.57568,3.436292 4.857542,8.63718 5.387216,12.631465 0.256672,1.935502 0.06721,4.58864 0.853398,4.004912 0.544228,-0.404073 0.600007,-1.108281 0.640043,-2.014116 0.305917,-0.112797 0.08024,-1.192978 0.05142,-1.506473 0.163266,0.05854 0.773895,1.639313 1.181991,1.277346 0.286769,-0.254355 0.03145,-2.362721 -0.227069,-3.515797 0.555729,0.613908 0.702115,3.09468 1.178562,2.423672 0.354621,-0.499429 -0.121037,-4.980751 -0.198256,-5.767958 0.330904,0.433664 0.657954,2.923362 1.021467,2.647989 0.865322,-0.655511 0.706528,-4.446035 0.613291,-5.248644 -0.256398,-2.206934 -1.130559,-5.493815 -1.568213,-6.688574 -0.639932,-1.746939 -1.496851,-2.880068 -2.845559,-2.817432 z m 399.224168,0 c -0.31125,0.01447 -0.64833,0.09246 -1.01528,0.241474 -0.69553,0.282457 -2.03146,0.314961 -1.60389,1.322621 -0.54433,-0.04888 -3.14828,0.17728 -3.58716,0.428753 -1.22299,0.700846 -1.09581,2.14439 0.118,2.580762 2.57571,3.436292 4.85754,8.63718 5.38722,12.631465 0.25671,1.935502 0.0673,4.58864 0.85342,4.004912 0.5442,-0.404073 0.59997,-1.108281 0.64006,-2.014116 0.30585,-0.112797 0.0809,-1.192978 0.0521,-1.506473 0.16331,0.05854 0.77389,1.639313 1.18199,1.277346 0.28677,-0.254355 0.0318,-2.362721 -0.22709,-3.515797 0.55578,0.613908 0.7015,3.09468 1.17795,2.423672 0.35466,-0.499429 -0.12036,-4.980751 -0.19762,-5.767958 0.33092,0.433664 0.65799,2.923362 1.0215,2.647989 0.86534,-0.655511 0.70645,-4.446035 0.61325,-5.248644 -0.25638,-2.206934 -1.13058,-5.493815 -1.56822,-6.688574 -0.63987,-1.746939 -1.49753,-2.880068 -2.84619,-2.817432 z m -246.67669,5.721987 c -1.02293,-0.005 -2.21563,0.01149 -3.51302,0.03636 -9.17074,0.175799 -22.58123,-0.353941 -39.44404,1.77813 -0.77297,-0.380826 -1.30174,-0.708716 -2.21307,-0.915133 -1.38725,-0.314219 -4.76653,0.515996 -5.70692,1.313017 -0.81163,0.687906 -1.90476,1.528098 -2.06418,2.219236 -0.071,0.307457 0.35775,0.770972 1.48657,1.416604 -0.0961,0.291806 -0.62109,1.258626 -0.28881,2.034014 0.61086,1.425514 2.62403,3.020999 4.96739,4.35341 1.85952,1.057294 7.08686,-1.885086 8.95995,-2.079294 12.75054,-1.322021 19.28651,-1.355175 27.64337,-1.455023 1.44549,-0.01728 1.96446,-1.35073 0.97,-1.472173 -0.86618,-0.105782 -2.05336,-0.353678 -2.07654,-0.788908 -0.0203,-0.379424 7.85764,0.509134 7.68532,-0.924053 2.13825,-0.09303 0.81663,-1.444483 1.4125,-1.730111 1.35779,-0.650864 0.54871,-1.770591 -0.19964,-1.987366 0.96674,-0.322245 4.61057,-0.551964 5.23972,-0.822521 1.75045,-0.752736 0.21026,-0.961139 -2.8586,-0.976191 z"
     id="path2985-3-0"
     inkscape:connector-curvature="0" />
</svg>
